{
  "cordova-plugin-whitelist": {
    "source": {
      "type": "registry",
      "id": "cordova-plugin-whitelist@1"
    },
    "is_top_level": true,
    "variables": {}
  },
  "cordova-plugin-camera": {
    "source": {
      "type": "registry",
      "id": "cordova-plugin-camera@4.0.3"
    },
    "is_top_level": true,
    "variables": {}
  },
  "cordova-plugin-browsersync": {
    "source": {
      "type": "registry",
      "id": "cordova-plugin-browsersync"
    },
    "is_top_level": true,
    "variables": {}
  },
  "cordova-sqlite-storage": {
    "source": {
      "type": "registry",
      "id": "cordova-sqlite-storage"
    },
    "is_top_level": true,
    "variables": {}
  },
  "cordova-plugin-splashscreen": {
    "source": {
      "type": "registry",
      "id": "cordova-plugin-splashscreen@5.0.2"
    },
    "is_top_level": true,
    "variables": {}
  }
}